#include <tls.h>

-- If tls.h defined DB_THREAD_SELF_INCLUDE then we need to include it.
#ifdef DB_THREAD_SELF_INCLUDE
# include DB_THREAD_SELF_INCLUDE
#endif

-- tls.h should define I8_TS_CTA_VALUE
--                     or (I8_TS_REGISTER and (I8_TS_REG_BIAS
--                                             or I8_TS_RTA_SCALE))
#if defined (I8_TS_CTA_VALUE)
# if defined (I8_TS_REGISTER)
#  error "tls.h must define either I8_TS_REGISTER or I8_TS_CTA_VALUE"
# endif
# define I8_TS_REGISTER		-1
# define I8_TS_REG_BIAS		-1
# define I8_TS_RTA_SCALE	-1
#elif defined (I8_TS_REGISTER)
# if defined (I8_TS_CTA_VALUE)
#  error "tls.h must define either I8_TS_REGISTER or I8_TS_CTA_VALUE"
# endif
# define I8_TS_CTA_VALUE	-1
# if defined (I8_TS_REG_BIAS)
#  if defined (I8_TS_RTA_SCALE)
#   error "tls.h must define either I8_TS_REG_BIAS or I8_TS_RTA_SCALE"
#  endif
#  define I8_TS_RTA_SCALE	-1
# elif defined (I8_TS_RTA_SCALE)
#  if defined (I8_TS_REG_BIAS)
#   error "tls.h must define either I8_TS_REG_BIAS or I8_TS_RTA_SCALE"
#  endif
#  define I8_TS_REG_BIAS	-1
# else
#  error "tls.h must define either I8_TS_REG_BIAS or I8_TS_RTA_SCALE"
# endif
#else
# error "tls.h must define either I8_TS_REGISTER or I8_TS_CTA_VALUE"
#endif

-- Constants to export

I8_TS_CTA_VALUE
I8_TS_REGISTER
I8_TS_REG_BIAS
I8_TS_RTA_SCALE
