#include <pthreadP.h>

#if TLS_TCB_AT_TP
# define PTHREAD_HEADER_DTV_OFFSET	offsetof (struct pthread, header) + offsetof (tcbhead_t, dtv)
# define TLS_PRE_TCB_SIZE 0
#elif TLS_DTV_AT_TP
# define PTHREAD_HEADER_DTV_OFFSET	TLS_PRE_TCB_SIZE + offsetof (tcbhead_t, dtv) - (TLS_TCB_SIZE == 0 ? sizeof (tcbhead_t) : 0)
#else
# error "Either TLS_TCB_AT_TP or TLS_DTV_AT_TP must be defined"
#endif

-- structure offsets

LIST_T_NEXT_OFFSET		offsetof (list_t, next)
PTHREAD_CANCELHANDLING_OFFSET	offsetof (struct pthread, cancelhandling)
PTHREAD_LIST_OFFSET		offsetof (struct pthread, list)
PTHREAD_TID_OFFSET		offsetof (struct pthread, tid)
PTHREAD_SCHEDPARAM_SCHED_PRIORITY_OFFSET offsetof (struct pthread, schedparam) + offsetof (struct sched_param, __sched_priority)
PTHREAD_SCHEDPOLICY_OFFSET	offsetof (struct pthread, schedpolicy)
PTHREAD_HEADER_DTV_OFFSET
PTHREAD_REPORT_EVENTS_OFFSET	offsetof (struct pthread, report_events)
PTHREAD_SPECIFIC_OFFSET		offsetof (struct pthread, specific)
PTHREAD_START_ROUTINE_OFFSET	offsetof (struct pthread, start_routine)
PTHREAD_EVENTBUF_EVENTMASK_EVENT_BITS_OFFSET	offsetof (struct pthread, eventbuf) + offsetof (td_eventbuf_t, eventmask) + offsetof (td_thr_events_t, event_bits)
DTV_T_SIZE			sizeof (dtv_t)
DTV_COUNTER_OFFSET		offsetof (dtv_t, counter)
DTV_POINTER_OFFSET		offsetof (dtv_t, pointer.val)

-- scheduling algorithms

SCHED_OTHER
SCHED_FIFO
SCHED_RR

-- cancellation processing flags

EXITING_BITMASK
TERMINATED_BITMASK

-- what is at the thread pointer?

TLS_DTV_AT_TP
TLS_TCB_AT_TP
TLS_PRE_TCB_SIZE

-- events

TD_EVENTSIZE
